Output: NC Drill Files
Type  : NC Drill
From  : PCB Document [L6470Dev.PcbDoc]
   Generated File[L6470Dev.TXT]
   Generated File[L6470Dev.LDP]
   Generated File[L6470Dev.DRR]


Files Generated   : 3
Documents Printed : 0

Finished Output Generation At 18:40:19 On 05/03/2015
